<svg xmlns="http://www.w3.org/2000/svg" width="31" height="20" viewBox="0 0 31 20">
  <path fill="#fff" class="cls-1" d="M230.17,22.353h28.66a1.177,1.177,0,0,0,0-2.353H230.17A1.177,1.177,0,0,0,230.17,22.353Zm0,8.824h28.66a1.177,1.177,0,0,0,0-2.353H230.17A1.177,1.177,0,0,0,230.17,31.176Zm0,8.824h28.66a1.176,1.176,0,0,0,0-2.353H230.17A1.176,1.176,0,0,0,230.17,40Z" transform="translate(-229 -20)"/>
</svg>
