<svg xmlns="http://www.w3.org/2000/svg" width="17" height="17" viewBox="0 0 17 17">
  <defs>
    <style>
      .cls-1 {
        fill: #db9316;
        fill-rule: evenodd;
      }
    </style>
  </defs>
  <path id="Добавить_в_закладки" data-name="Добавить в закладки" class="cls-1" d="M989.91,405.362a1.635,1.635,0,0,0-1.429-1.169l-3.979-.309-1.5-3.84a1.607,1.607,0,0,0-1.5-1.047,1.625,1.625,0,0,0-1.512,1.046l-1.5,3.841-3.994.31a1.663,1.663,0,0,0-1.42,1.2,1.7,1.7,0,0,0,.5,1.787l3.035,2.685-0.942,4.028a1.723,1.723,0,0,0,.284,1.445,1.616,1.616,0,0,0,1.286.662h0a1.575,1.575,0,0,0,.862-0.262l3.388-2.182,3.387,2.182a1.557,1.557,0,0,0,.845.254,1.632,1.632,0,0,0,1.283-.652,1.742,1.742,0,0,0,.306-1.438l-0.944-4.037,3.033-2.682A1.736,1.736,0,0,0,989.91,405.362Z" transform="translate(-973 -399)"/>
</svg>
